{
	"id": "84fa31f5-de16-4119-8814-d2bf5dc9fdbe",
	"name": "compra-tarjeta-ripley",
	"values": [
		{
			"key": "url preprod",
			"value": "https://preprod.ripley.cl",
			"enabled": true
		},
		{
			"key": "checkout preprod",
			"value": "https://checkout-preprod.ripley.cl",
			"enabled": true
		},
		{
			"key": "checkout gateway",
			"value": "https://checkout-gateway-cl-preprod.ripley.cl",
			"enabled": true
		},
		{
			"key": "ibmcloud preprod",
			"value": "https://preprod-ibmcloud.ripley.cl",
			"enabled": true
		},
		{
			"key": "completa preprod",
			"value": "https://completa-cyb.ripleyqa.com",
			"enabled": true
		},
		{
			"key": "part_number",
			"value": "2094020940000",
			"enabled": true
		},
		{
			"key": "rutTV",
			"value": "58540501",
			"enabled": true
		},
		{
			"key": "passTV",
			"value": "1234",
			"enabled": true
		},
		{
			"key": "ORDERITEM_ID",
			"value": "",
			"enabled": true
		},
		{
			"key": "ORDER_ID",
			"value": "",
			"enabled": true
		},
		{
			"key": "userId",
			"value": "",
			"enabled": true
		},
		{
			"key": "addressId",
			"value": "",
			"enabled": true
		},
		{
			"key": "FECHA",
			"value": "",
			"enabled": true
		},
		{
			"key": "FLETE",
			"value": "",
			"enabled": true
		},
		{
			"key": "JORNADA",
			"value": "",
			"enabled": true
		},
		{
			"key": "card-token",
			"value": "",
			"enabled": true
		},
		{
			"key": "masked-pan",
			"value": "",
			"enabled": true
		},
		{
			"key": "SKU",
			"value": "",
			"enabled": true
		},
		{
			"key": "TOTAL",
			"value": "",
			"enabled": true
		},
		{
			"key": "UNIT_PRICE",
			"value": "",
			"enabled": true
		},
		{
			"key": "TOKEN",
			"value": "",
			"enabled": true
		},
		{
			"key": "order_id",
			"value": "",
			"enabled": true
		},
		{
			"key": "paymentInstructionId",
			"value": "",
			"enabled": true
		}
	],
	"_postman_variable_scope": "environment",
	"_postman_exported_at": "2020-11-19T16:46:53.664Z",
	"_postman_exported_using": "Postman/7.34.0"
}